64628dc0af477||1684180416||::1||gwg||egeqg||eeg@mail.ru||959580||Technologies||Yandex Money||yes||deleted
64628dc0af477||1684180416||::1||gwg||egeqg||eeg@mail.ru||959560||Technologies||Yandex Money||no||ok
64628dc0af477||1684180416||::1||gwg||egeqg||eeg@mail.ru||959560||Technologies||Yandex Money||yes||ok
646310757cac2||1684213877||::1||e3kljroq2||wyw3y||wy3eyw@mail.ru||69598594||Business||Webmoney||no||deleted
64631c937de4b||1684216979||::1||ue5e5||iikeik||eie@mail.ru||79606660699||Advertising and Marketing||Yandex Money||yes||ok
64632a589d079||1684220504||::1||egwg||geeg||egew@mail.ru||4894940||Technologies||Webmoney||yes||ok
